Proj1 ADS
…
What are some positive and negative words in the corpus according to bing dictionary?

## # A tibble: 470,865 x 3
## # Groups:   id [117,930]
##        id word          n
##     <int> <chr>     <int>
##  1  99927 white       170
##  2  99931 white       170
##  3  14877 jump        125
##  4  14909 jump        125
##  5  61001 beautiful   109
##  6 119469 joy         101
##  7  15003 love         95
##  8  75038 dance        94
##  9  85460 love         86
## 10  47379 love         84
## #  with 470,855 more rows
…
